{
  "name": "rails-assets-d3",
  "downloads": null,
  "version": "3.5.17",
  "version_downloads": null,
  "platform": "ruby",
  "authors": "rails-assets.org",
  "info": "A JavaScript visualization library for HTML and SVG.",
  
  "licenses": "BSD-3-Clause",
  
  "metadata": {

  },
  "sha": null,
  "project_uri": "https://github.com/mbostock-bower/d3-bower",
  "gem_uri": null,
  "homepage_uri": "https://github.com/mbostock-bower/d3-bower",
  "wiki_uri": null,
  "documentation_uri": null,
  "mailing_list_uri": null,
  "source_code_uri": "https://github.com/mbostock-bower/d3-bower",
  "bug_tracker_uri": null,
  "dependencies": {
    "development": [
    
    ],
    "runtime": [

    ]
  }
}
