{
  "name": "rails-assets-angular-sanitize",
  "downloads": null,
  "version": "1.5.11",
  "version_downloads": null,
  "platform": "ruby",
  "authors": "rails-assets.org",
  "info": "",
  
  "licenses": "MIT",
  
  "metadata": {

  },
  "sha": null,
  "project_uri": "https://github.com/angular/bower-angular-sanitize",
  "gem_uri": null,
  "homepage_uri": "https://github.com/angular/bower-angular-sanitize",
  "wiki_uri": null,
  "documentation_uri": null,
  "mailing_list_uri": null,
  "source_code_uri": "https://github.com/angular/bower-angular-sanitize",
  "bug_tracker_uri": null,
  "dependencies": {
    "development": [
    
    
    {
      "name": "rails-assets-angular",
      "requirements": "1.5.11"
    },
    
    
    ],
    "runtime": [

    ]
  }
}
